…
## Cross validation using `modelr`

``` r
cv_df = 
  crossv_mc(nonlin_df, 100)
```

What is happening here …

``` r
cv_df %>% 
  pull(train) %>% .[[1]] %>% as_tibble()
```

    ## # A tibble: 79 x 3
    ##       id      x      y
    ##    <int>  <dbl>  <dbl>
    ##  1     1 0.212   1.12 
    ##  2     2 0.899  -2.79 
    ##  3     5 0.241   0.761
    ##  4     6 0.442   0.477
    ##  5     7 0.104   1.02 
    ##  6     8 0.483   1.00 
    ##  7    10 0.185   0.958
    ##  8    11 0.116   0.746
    ##  9    12 0.0121  0.351
    ## 10    13 0.937  -2.93 
    ## # … with 69 more rows
…
